Diversity of treeline epiphytes
…
TABLES species richness and abundance by forophytes

DIVERFORO <- data %>%
  group_by(forof) %>%
  summarise(
    RIQUEZA    = n_distinct(morphospe),  # especies únicas
    ABUNDANCIA = n()                     # número de individuos (filas)
  )
DIVERFORO

## # A tibble: 186 × 3
##    forof      RIQUEZA ABUNDANCIA
##    <chr>        <int>      <int>
##  1 ACJ-01_313       6         15
##  2 ACJ-01_314       4         11
##  3 ACJ-01_315       8         17
##  4 ACJ-01_316       6         13
##  5 ACJ-01_317       3          5
##  6 ACJ-01_319       3          5
##  7 ACJ-01_321       6         11
##  8 ACJ-01_323       6         23
##  9 ACJ-01_325      15         71
## 10 ACJ-01_326       2          4
## # ℹ 176 more rows

data_tree <- data %>%            #Tabla con datos del forofito 
  group_by(forof) %>%
  distinct(forof, dap, plot, genera_tree, elevation)
data_tree

## # A tibble: 186 × 5
## # Groups:   forof [186]
##    forof         dap plot   genera_tree elevation
##    <chr>       <dbl> <chr>  <chr>           <int>
##  1 ACJ-01_313   15   ACJ-01 Sessea           3537
##  2 ACJ-01_317   26.5 ACJ-01 Symplocos        3537
##  3 ACJ-01_316   17.2 ACJ-01 Hedyosmum        3537
##  4 ACJ-01_315   50.8 ACJ-01 Polylepis        3537
##  5 ACJ-01_339   25.2 ACJ-01 Symplocos        3537
##  6 ACJ-01_314   28.5 ACJ-01 Hedyosmum        3537
##  7 ACJ-01_336   31.1 ACJ-01 Weinmannia       3537
##  8 ACJ-01_319   15.1 ACJ-01 Symplocos        3537
##  9 ACJ-01_4546  12.6 ACJ-01 Symplocos        3537
## 10 ACJ-01_321   15.7 ACJ-01 Weinmannia       3537
## # ℹ 176 more rows

DIVERFORO <- DIVERFORO %>%          #juntar
  left_join(data_tree, by = "forof")
DIVERFORO

## # A tibble: 186 × 7
##    forof      RIQUEZA ABUNDANCIA   dap plot   genera_tree elevation
##    <chr>        <int>      <int> <dbl> <chr>  <chr>           <int>
##  1 ACJ-01_313       6         15  15   ACJ-01 Sessea           3537
##  2 ACJ-01_314       4         11  28.5 ACJ-01 Hedyosmum        3537
##  3 ACJ-01_315       8         17  50.8 ACJ-01 Polylepis        3537
##  4 ACJ-01_316       6         13  17.2 ACJ-01 Hedyosmum        3537
##  5 ACJ-01_317       3          5  26.5 ACJ-01 Symplocos        3537
##  6 ACJ-01_319       3          5  15.1 ACJ-01 Symplocos        3537
##  7 ACJ-01_321       6         11  15.7 ACJ-01 Weinmannia       3537
##  8 ACJ-01_323       6         23  28.3 ACJ-01 Weinmannia       3537
##  9 ACJ-01_325      15         71  51.8 ACJ-01 Weinmannia       3537
## 10 ACJ-01_326       2          4  12.5 ACJ-01 Saracha          3537
## # ℹ 176 more rows
…
